<svg width="24" height="24" viewBox="0 0 24 24" fill="none" xmlns="http://www.w3.org/2000/svg">
<path d="M5 4.25H19C19.6904 4.25 20.25 4.80964 20.25 5.5V19.5C20.25 20.1904 19.6904 20.75 19 20.75H5C4.30964 20.75 3.75 20.1904 3.75 19.5V5.5C3.75 4.80964 4.30964 4.25 5 4.25Z" stroke="black" stroke-width="1.5" stroke-linecap="round" stroke-linejoin="round"/>
<path d="M17 2V6" stroke="black" stroke-width="1.5"/>
<path d="M7 2V6" stroke="black" stroke-width="1.5"/>
<path d="M20 4.5H4V8H20V4.5Z" fill="black"/>
</svg>
