<svg xmlns="http://www.w3.org/2000/svg" width="60" height="60" fill="none" viewBox="0 0 60 60">
  <path fill="#FF3D00" fill-opacity=".1" d="M42 49.273V15.636H22v33.637h6.364V52s0-26.364 3.636-26.364S35.636 52 35.636 52v-2.727H42z"/>
  <path stroke="#FF3D00" stroke-linecap="round" stroke-linejoin="round" d="M20 10h20m-20 0v40m0-40v3.636h20V10m0 0v40m0 0h-6.364M40 50v-2.727h-6.364V50m0 0s0-26.364-3.636-26.364S26.364 50 26.364 50m0 0H20m6.364 0v-2.727H20V50"/>
</svg>
