<svg xmlns="http://www.w3.org/2000/svg" width="60" height="60" fill="none" viewBox="0 0 60 60">
  <path fill="#FF3D00" fill-opacity=".1" d="M26 18c2 0 4 4 6 5 2-1 4-5 6-5s2 2 2 2c0 5-1 5.592-1 11 0 5.497 4.838 14 4.838 19.5L44 53H20l.162-2.5C20.162 45 25 36.497 25 31c0-5.408-1-6-1-11 0 0 0-2 2-2z"/>
  <path stroke="#FF3D00" stroke-linecap="round" stroke-linejoin="round" d="M24 16c2 0 4 4 6 5 2-1 4-5 6-5m-12 0c-2 0-2 2-2 2 0 5 1 5.592 1 11 0 5.497-4.838 14-4.838 19.5L18 51h24l-.162-2.5C41.838 43 37 34.497 37 29c0-5.408 1-6 1-11 0 0 0-2-2-2m-12 0V8m12 8V8"/>
</svg>
