<svg xmlns="http://www.w3.org/2000/svg" width="60" height="60" fill="none" viewBox="0 0 60 60">
  <path fill="#FF3D00" fill-opacity=".1" d="M12 29.351L12.87 25h38.51l.87 4.351s-6.527.436-12.619 3.481c-5.204 2.602-4.786 10.444-6.092 10.444h-2.828c-1.306 0-.888-7.842-6.092-10.444C18.527 29.786 12 29.352 12 29.352z"/>
  <path stroke="#FF3D00" stroke-linecap="round" stroke-linejoin="round" d="M10.87 23L10 27.351s6.527.436 12.619 3.481c5.204 2.602 4.786 10.444 6.092 10.444h2.828c1.306 0 .888-7.842 6.092-10.444 6.092-3.046 12.619-3.48 12.619-3.48L49.38 23H10.87z"/>
</svg>
