<svg xmlns="http://www.w3.org/2000/svg" width="60" height="60" fill="none" viewBox="0 0 60 60">
  <path fill="#FF3D00" fill-opacity=".1" d="M34.133 13c-10.586 0-10.978 10.194-10.978 10.194v8.626s-3.137-3.137-5.097-3.529c-1.96-.392-4.705 1.569-3.92 4.705.784 3.137 9.41 7.842 10.586 11.37.398 1.196.526 2.257.598 3.137h18.221v-4.705s3.137-9.802 3.137-15.683S44.72 13 34.133 13z"/>
  <path stroke="#FF3D00" stroke-linecap="round" stroke-linejoin="round" d="M23.322 45.503c-.072-.88-.2-1.94-.598-3.137-1.177-3.528-9.803-8.233-10.587-11.37-.784-3.136 1.96-5.097 3.921-4.705 1.96.392 5.097 3.529 5.097 3.529v-8.626S21.547 11 32.133 11C42.72 11 44.68 19.234 44.68 25.115s-3.137 15.683-3.137 15.683v4.705m-18.22 0c.14 1.716.065 2.745 1.36 2.745h14.9c1.96 0 1.96-1.96 1.96-1.96v-.785m-18.22 0h18.22"/>
</svg>
