<svg xmlns="http://www.w3.org/2000/svg" width="60" height="60" fill="none" viewBox="0 0 60 60">
  <path fill="#FF3D00" fill-opacity=".1" d="M35.333 35.167c0 1.234-.67 2.31-1.666 2.887v2.113a1.667 1.667 0 01-3.334 0v-2.113a3.333 3.333 0 115-2.887z"/>
  <path fill="#FF3D00" fill-opacity=".1" fill-rule="evenodd" d="M18.667 25.167h26.666c.92 0 1.667.746 1.667 1.666v20c0 .92-.746 1.667-1.667 1.667H18.667c-.92 0-1.667-.746-1.667-1.667v-20c0-.92.746-1.666 1.667-1.666zm16.666 10c0 1.234-.67 2.31-1.666 2.887v2.113a1.667 1.667 0 01-3.334 0v-2.113a3.333 3.333 0 115-2.887z" clip-rule="evenodd"/>
  <path stroke="#FF3D00" stroke-linecap="round" stroke-linejoin="round" d="M16.667 46.5h26.666c.92 0 1.667-.746 1.667-1.667v-20c0-.92-.746-1.666-1.667-1.666H16.667c-.92 0-1.667.746-1.667 1.666v20c0 .92.746 1.667 1.667 1.667zm22.5-23.333v-5a9.167 9.167 0 00-18.334 0v5h18.334z"/>
  <path fill="#FF3D00" fill-opacity=".3" stroke="#FF3D00" stroke-linecap="round" stroke-linejoin="round" d="M33.334 33.167c0 1.234-.67 2.31-1.667 2.887v2.113a1.667 1.667 0 01-3.333 0v-2.113a3.333 3.333 0 115-2.887z"/>
</svg>
